Cpu_usage(%),Memory_usage(%),Number_handles(pcs),Time
10.3,63.3,135,2022-08-03 22:06:06.802895
24.0,63.6,136,2022-08-03 22:06:37.126878
24.2,63.4,134,2022-08-03 22:07:03.831330
28.2,63.6,135,2022-08-03 22:07:34.422506
23.1,63.4,134,2022-08-03 22:08:06.142222
26.6,63.4,133,2022-08-03 22:08:34.010828
28.7,64.9,134,2022-08-03 22:09:04.074762
25.0,64.9,135,2022-08-03 22:09:33.208154
24.5,64.8,134,2022-08-03 22:10:00.562096
30.6,64.1,134,2022-08-03 22:10:26.440912
30.4,63.7,134,2022-08-03 22:10:56.866223
26.5,63.8,133,2022-08-03 22:11:27.033706
28.1,63.7,133,2022-08-03 22:11:55.203737
27.9,64.0,134,2022-08-03 22:12:22.873278
28.9,62.9,133,2022-08-03 22:12:59.944476
18.3,63.9,134,2022-08-03 22:13:27.698939
25.3,64.1,134,2022-08-03 22:13:57.439767
26.4,63.1,134,2022-08-03 22:14:29.866545
23.4,63.2,136,2022-08-03 22:14:59.953687
25.2,62.9,136,2022-08-03 22:15:29.990859
